[
    {
        "title": "Père, on te loue; la nuit se termine",
        "original_title": "Father, we praise thee; now the night is over",
        "text": [
            "Grégoire le Grand (540-604);",
            "tr. en anglais Percy Dearmer (1867-1936);",
            "tr. en français Arlie Coles (2021)"
        ],
        "music": {
            "tune": "Christe sanctorum",
            "source": [
                "*La Feillée, Méthode du plain-chant* (1782)"
            ]
        },
        "subject": "morning"
    },
    {
        "title": "Christ, le ciel montre ta gloire",
        "original_title": "Christ, whose glory fills the skies",
        "text": [
            "Charles Wesley (1740);",
            "tr. Arlie Coles (2021);"
        ],
        "music": {
            "tune": "Ratisbon",
            "source": [
                "Johann Gottlob Werner (1815)"
            ]
        },
        "subject": "morning"
    },
    {
        "title": "O Dieu, Seigneur de vérité",
        "original_title": "Rector potens, verax Deus",
        "text": [
            "Saint Ambroise (340-397);",
            "tr. en anglais J. M. Neale (1818-1866);",
            "tr. en français Arlie Coles (2021)"
        ],
        "music": {
            "tune": "Song 34",
            "source": [
                "Orlando Gibbons (1623)"
            ]
        },
        "subject": "morning"
    },
    {
        "title": "Reste avec moi",
        "original_title": "Abide with me",
        "text": [
            "Henry F. Lyte (1847);",
            "tr. Ruben Sailens (1855-1942);",
            "tr. en français Arlie Coles (2021)"
        ],
        "music": {
            "tune": "Eventide",
            "source": [
                "William H. Monk (1861)"
            ]
        },
        "subject": "evening"
    },
    {
        "title": "Seigneur, quand vient l'obscurité",
        "original_title": "All praise to thee, my God, this night",
        "text": [
            "Thomas Ken (1637-1711);",
            "tr. Flossette du Pasquier (née 1922), str. 1-2, 4-6;",
            "tr. Arlie Coles (2022), str. 3"
        ],
        "music": {
            "tune": "Tallis Canon",
            "source": [
                "Thomas Tallis (1505-1585)"
            ]
        },
        "subject": "evening"
    },
    {
        "title": "Le jour décline et la nuit tombe",
        "original_title": "The day thou gavest, Lord, is ended",
        "text": [
            "John Ellerton (1870);",
            "tr. Arlie Coles (2022)"
        ],
        "music": {
            "tune": "St Clement",
            "source": [
                "Clement C. Scholefield (1874)"
            ]
        },
        "subject": "evening"
    },
    {
        "title": "Le jour de travail prend fin",
        "original_title": "The duteous day now closeth",
        "text": [
            "Paul Gerhardt (1676);",
            "tr. en anglais Robert Bridges (1830)",
            "tr. en français Arlie Coles (2021)"
        ],
        "music": {
            "tune": "Innsbruck",
            "source": [
                "Heinrich Isaac (1539);",
                "harm. J. S. Bach (1729)"
            ]
        },
        "subject": "evening"
    },
    {
        "title": "Avant la fin du jour qui fuit",
        "original_title": "Te lucis ante terminum",
        "text": [
            "inconnu, attr. Saint Ambroise (340-397)",
            "tr. *La Poésie du bréviaire* (1899), ad. Arlie Coles (2021), str. 1-2",
            "tr. Arlie Coles (2021), str. 3"
        ],
        "music": {
            "tune": "Te lucis ante terminum",
            "source": [
                "chant grégorien, attr. *Liber Usualis*, XIe siècle"
            ]
        },
        "subject": "evening",
        "tags": ["Hymne du bréviaire · Office hymn"]
    },
    {
        "title": "Quand Gabriel du ciel est descendu",
        "original_title": "The angel Gabriel from heaven came",
        "text": [
            "basque, XIIIe siècle;",
            "tr. en anglais Sabine Baring-Gould (1834-1924)",
            "tr. en français Arlie Coles (2021)"
        ],
        "music": {
            "tune": "Gabriel's Message",
            "source": [
                "air basque, XIIIe siècle;",
                "ad. Edgar Pettman (1892)"
            ]
        },
        "subject": "annunciation",
        "tags": ["Vierge Marie · Virgin Mary"]
    },
    {
        "title": "O Vièrge Marie",
        "original_title": "",
        "text": [
            "*Psallam Deo*, Schola Cantorum de Montréal (1922)"
        ],
        "music": {
            "tune": "Paderborn",
            "source": [
                "*Paderborn Gesangbuch* (1765)"
            ]
        },
        "subject": "annunciation",
        "tags": ["Vierge Marie · Virgin Mary"]
    },
    {
        "title": "Venez, divin Messie",
        "original_title": "",
        "text": [
            "Simon-Joseph Pellegrin (1663-1745);",
            "ad. Arlie Coles (2021); str. 5"
        ],
        "music": {
            "tune": "Venez, divin Messie",
            "source": [
                "air français, XVIe siècle"
            ]
        },
        "subject": "advent"
    },
    {
        "title": "Levez vous! La voix appelle",
        "original_title": "Wachet auf! Ruft uns die Stimme",
        "text": [
            "Philipp Nicolai (1599);",
            "tr. Arlie Coles (2021)"
        ],
        "music": {
            "tune": "Wachet auf",
            "source": [
                "Philipp Nicolai (1599);",
                "harm. J. S. Bach (1731)"
            ]
        },
        "subject": "advent",
        "tags": ["Mariage · Marriage"]
    },
    {
        "title": "Voici, il descend parmi les nuages",
        "original_title": "Lo, he comes with clouds descending",
        "text": [
            "John Cennick (1752);",
            "ad. Charles Wesley (1758);",
            "tr. Arlie Coles (2021)"
        ],
        "music": {
            "tune": "Helmsley",
            "source": [
                "Thomas Augustine Arne (1761);",
                "ad. Martin Madan (1763);",
                "ad. Thomas Olivers (1763)"
            ]
        },
        "subject": "advent"
    },
    {
        "title": "O viens, ô viens, Emmanuel",
        "original_title": "Veni veni Emmanuel",
        "text": [
            "Latin, XIIe siècle;",
            "ad. en anglais J. M. Neale (1861);",
            "tr. en français Arlie Coles (2021)"
        ],
        "music": {
            "tune": "Veni veni Emmanuel",
            "source": [
                "Thomas Augustine Arne (1761);",
                "chant processionel français, XVe siècle;",
                "ad. Thomas Helmore (1811-1890)"
            ]
        },
        "subject": "advent",
        "tags": ["Hymne du bréviaire · Office hymn"]
    },
    {
        "title": "Créateur des cieux étoilés",
        "original_title": "Conditor alme siderum",
        "text": [
            "Latin, IXe siècle;",
            "tr. en anglais J. M. Neale (1852);",
            "tr. en français J. Giraud, *Hymnes à l'usage de l'église pour le service divin*, *Société pour l'avancement des connaissances chrétiennes* (1892), str. 1, 2, 4, 6;",
            "tr. en français Arlie Coles, str. 3, 5"
        ],
        "music": {
            "tune": "Conditor alme siderum",
            "source": [
                "chant grégorien, IXe siècle"
            ]
        },
        "subject": "advent",
        "tags": ["Hymne du bréviaire · Office hymn"]
    },
    {
        "title": "Entendez-vous ces cris joyeux",
        "original_title": "Hark, the glad sound",
        "text": [
            "Philip Doddridge (1735);",
            "tr. en anglais J. M. Neale (1852);",
            "tr. en français J. Giraud, *Hymnes à l'usage de l'église pour le service divin*, *Société pour l'avancement des connaissances chrétiennes* (1892)"
        ],
        "music": {
            "tune": "Richmond",
            "source": [
                "Thomas Haweis (1792)"
            ]
        },
        "subject": "advent"
    },
    {
        "title": "Une voix retentissante",
        "original_title": "Hark, a thrilling voice is sounding",
        "text": [
            "Latin, Ve siècle;",
            "tr. en anglais Edward Caswall (1814-1878);",
            "tr. en français J. Giraud, *Hymnes à l'usage de l'église pour le service divin*, *Société pour l'avancement des connaissances chrétiennes* (1892)"
        ],
        "music": {
            "tune": "Merton",
            "source": [
                "William Henry Monk (1850)"
            ]
        },
        "subject": "advent"
    },
    {
        "title": "Viens, ô Jésus très attendu",
        "original_title": "Come, thou long-expected Jesus",
        "text": [
            "Charles Wesley (1744);",
            "tr. Arlie Coles (2021)"
        ],
        "music": {
            "tune": "Stuttgart",
            "source": [
                "attr. Christian Friedrich Witt (1715)"
            ]
        },
        "subject": "advent"
    },
    {
        "title": "Consolez mon très cher peuple",
        "original_title": "Tröstet, tröstet meine Leben",
        "text": [
            "Johann Olearius (1671);",
            "Catherine Winkworth (1863);",
            "tr. Arlie Coles (2021)"
        ],
        "music": {
            "tune": "Genevan 42",
            "source": [
                "Louis Bourgeois (1551)"
            ]
        },
        "subject": "advent"
    },
    {
        "title": "Dans l'humble mangeoire",
        "original_title": "Away in a manger",
        "text": [
            "Anonyme (1885), str. 1-2;",
            "John T. McFarland (1892), str. 3;",
            "tr. Arlie Coles (2021)"
        ],
        "music": {
            "tune": "Cradle Song",
            "source": [
                "William J. Kirkpatrick (1895)"
            ]
        },
        "subject": "christmas"
    },
    {
        "title": "Dans l'humble mangeoire",
        "original_title": "Away in a manger",
        "text": [
            "Anonyme (1885), str. 1-2;",
            "John T. McFarland (1892), str. 3;",
            "tr. Arlie Coles (2021)"
        ],
        "music": {
            "tune": "Mueller",
            "source": [
                "James R. Murray (1887)"
            ]
        },
        "subject": "christmas"
    },
    {
        "title": "Petite ville, Bethléem",
        "original_title": "O little town of Bethlehem",
        "text": [
            "Phillips Brooks (1835-1893);",
            "tr. inconnu, ad. Arlie Coles (2021), str. 1-3;",
            "tr. Arlie Coles (2021), str. 4",
            "tr. Thomas W. Lyon (1988), ad. Arlie Coles (2021), str. 5"
        ],
        "music": {
            "tune": "Saint Louis",
            "source": [
                "Lewis H. Redner (1831-1908)"
            ]
        },
        "subject": "christmas"
    },
    {
        "title": "Petite ville, Bethléem",
        "original_title": "O little town of Bethlehem",
        "text": [
            "Phillips Brooks (1835-1893);",
            "tr. inconnu, ad. Arlie Coles (2021), str. 1-3;",
            "tr. Arlie Coles (2021), str. 4",
            "tr. Thomas W. Lyon (1988), ad. Arlie Coles (2021), str. 5"
        ],
        "music": {
            "tune": "Forest Green",
            "source": [
                "air anglais",
                "arr. Ralph Vaughan Williams (1906)"
            ]
        },
        "subject": "christmas"
    },
    {
        "title": "Douce nuit, sainte nuit",
        "original_title": "Stille Nacht, heilige Nacht",
        "text": [
            "Franz Joseph Mohr (1792-1848);",
            "tr. Arlie Coles (2021)"
        ],
        "music": {
            "tune": "Stille Nacht",
            "source": [
                "Franz Xavier Gruber (1787-1863)"
            ]
        },
        "subject": "christmas"
    },
    {
        "title": "Il est né, le divin Enfant",
        "original_title": "",
        "text": [
            "français, XIXe siècle;"
        ],
        "music": {
            "tune": "Il est né",
            "source": [
                "air français, XVIIIe siècle"
            ]
        },
        "subject": "christmas"
    },
    {
        "title": "Les anges dans nos campagnes",
        "original_title": "",
        "text": [
            "français, XVIIIe siècle"
        ],
        "music": {
            "tune": "Gloria",
            "source": [
                "air français, XVIe siècle"
            ]
        },
        "subject": "christmas"
    },
    {
        "title": "Ecoutez le chant du ciel",
        "original_title": "Hark, the herald angels sing",
        "text": [
            "Charles Wesley (1707-1788);",
            "tr. Violette du Pasquier (1889-1952), ad. Arlie Coles (2021), str. 1;",
            "tr. Arlie Coles (2021), str. 2-3"
        ],
        "music": {
            "tune": "Mendelssohn",
            "source": [
                "Felix Mendelssohn (1809-1847)"
            ]
        },
        "subject": "christmas"
    },
    {
        "title": "Que Dieu vous garde heureux, ô gens",
        "original_title": "God rest you merry, gentlemen",
        "text": [
            "Cantique anglais, XVIIe siècle;",
            "tr. en français Thomas W. Lyon (1987), ad. Arlie Coles (2021), str. 1-5;",
            "tr. Arlie Coles (2021), refrain"
        ],
        "music": {
            "tune": "God rest you merry",
            "source": [
                "air anglais, XVIIe siècle"
            ]
        },
        "subject": "christmas"
    },
    {
        "title": "Montez à Dieu, chants d'allegresse",
        "original_title": "",
        "text": [
            "Jules Barbier (1825-1901)",
            "ad. Arlie Coles (2021)"
        ],
        "music": {
            "tune": "Noël",
            "source": [
                "Charles Gounod (1866)"
            ]
        },
        "subject": "christmas"
    },
    {
        "title": "Les bergers et leurs troupeaux",
        "original_title": "While shepherds watched their flocks by night",
        "text": [
            "Nahum Tate (1700);",
            "tr. Arlie Coles (2021)"
        ],
        "music": {
            "tune": "Winchester Old",
            "source": [
                "attr. George Kirbye (1592)"
            ]
        },
        "subject": "christmas"
    },
    {
        "title": "Cà, bergers",
        "original_title": "",
        "text": [
            "Simon-Joseph Pellegrin (1663-1745)"
        ],
        "music": {
            "tune": "Cà, bergers",
            "source": [
                "air français, XIXe siècle"
            ]
        },
        "subject": "christmas"
    },
    {
        "title": "Entre le boeuf et l'âne gris",
        "original_title": "",
        "text": [
            "français, XIIIe siècle"
        ],
        "music": {
            "tune": "Entre le boeuf",
            "source": [
                "air français, XIIIe siècle"
            ]
        },
        "subject": "christmas"
    },
    {
        "title": "Quelle est cette odeur agréable",
        "original_title": "",
        "text": [
            "français, XVIIe siècle"
        ],
        "music": {
            "tune": "Quelle est cette odeur",
            "source": [
                "John Gay (1728)",
                "arr. Roger Bergs (2003)"
            ]
        },
        "subject": "christmas"
    },
    {
        "title": "Minuit, chrétiens",
        "original_title": "",
        "text": [
            "Placide Cappeau (1847)"
        ],
        "music": {
            "tune": "Cantique de Noël",
            "source": [
                "Adolphe Adam (1847)"
            ]
        },
        "subject": "christmas"
    },
    {
        "title": "Dans cette étable",
        "original_title": "",
        "text": [
            "français, XVIIIe siècle"
        ],
        "music": {
            "tune": "Dans cette étable",
            "source": [
                "air français, XVIIIe siècle"
            ]
        },
        "subject": "christmas"
    },
    {
        "title": "Un flambeau, Jeannette, Isabelle",
        "original_title": "",
        "text": [
            "provençal, XVIIe siècle;",
            "ad. en français Emile Blémont (1839-1927);",
            "ad. Arlie Coles (2021), str. 3"
        ],
        "music": {
            "tune": "Un flambeau",
            "source": [
                "air provençal, XVIIe siècle;",
                "ad. Nicolas Saboly (1614-1675)"
            ]
        },
        "subject": "christmas"
    },
    {
        "title": "D'un arbre séculaire",
        "original_title": "Es ist ein Ros entsprungen",
        "text": [
            "allemand (XVe siècle);",
            "tr. en anglais Theodore Baker (1894);",
            "tr. en français inconnu, ad. Arlie Coles (2021), str. 1;",
            "tr. en français Arlie Coles (2021), str. 2-3"
        ],
        "music": {
            "tune": "Es ist ein Ros",
            "source": [
                "*Alte Catholische Geisliche Kirchengasäng* (1599)",
                "harm. Michael Praetorius (1609)"
            ]
        },
        "subject": "christmas"
    },
    {
        "title": "Joie dans le monde",
        "original_title": "Joy to the world",
        "text": [
            "Isaac Watts (1719);",
            "tr. Arlie Coles (2022)"
        ],
        "music": {
            "tune": "Antioch",
            "source": [
                "George F. Handel (1742);",
                "ad. Lowell Mason (1792-1872)"
            ]
        },
        "subject": "christmas"
    },
    {
        "title": "O peuple fidèle",
        "original_title": "Adeste fideles",
        "text": [
            "Attr. John Francis Wade (1750);",
            "tr. en anglais Frederick Oakeley (1841);",
            "tr. en français Jean-François Borderies (1790), ad. Arlie Coles (2021)"
        ],
        "music": {
            "tune": "Adeste fideles",
            "source": [
                "attr. John Francis Wade (1750)"
            ]
        },
        "subject": "christmas"
    },
    {
        "title": "Des dominions glorieuses",
        "original_title": "Angels, from the realms of glory",
        "text": [
            "James Montgomery (1816);",
            "tr. Arlie Coles (2021)"
        ],
        "music": {
            "tune": "Regent Square",
            "source": [
                "Henry Thomas Smart (1866)"
            ]
        },
        "subject": "christmas"
    },
    {
        "title": "Chantons Noël, voici le jour",
        "original_title": "",
        "text": [
            "*Psallam Deo*, Schola Cantorum de Montréal (1922)"
        ],
        "music": {
            "tune": "In dulci jubilo",
            "source": [
                "air allemand (XIVe siècle)"
            ]
        },
        "subject": "christmas"
    },
    {
        "title": "Bambins et gamines",
        "original_title": "Ihr Kinderlein, kommet",
        "text": [
            "inconnu, attr. chant alsacien"
        ],
        "music": {
            "tune": "Ihr Kinderlein kommet",
            "source": [
                "J. A. P. Schulz (1747-1800)"
            ]
        },
        "subject": "christmas",
        "tags": ["Enfants · Children"]
    },
    {
        "title": "Chrétiens, prenez courage",
        "original_title": "Jesous Ahatonia",
        "text": [
            "Saint Jean de Brébeuf (1641)",
            "tr. Paul Picard (Tsawenhohi) (date inconnue)"
        ],
        "music": {
            "tune": "Une jeune pucelle",
            "source": [
                "air français (XVIe siècle)"
            ]
        },
        "subject": "christmas"
    },
    {
        "title": "Qui est cet Enfant endormi",
        "original_title": "What Child is this, who laid to rest",
        "text": [
            "W. Chatterton Dix (1865)",
            "tr. Arlie Coles (2021)"
        ],
        "music": {
            "tune": "Greensleeves",
            "source": [
                "air anglais (XVIe siècle)"
            ]
        },
        "subject": "christmas"
    },
    {
        "title": "La première fois que Noël se disait",
        "original_title": "The first Noel the angel did say",
        "text": [
            "anglais, c. XVIe siècle;",
            "tr. Arlie Coles (2021)"
        ],
        "music": {
            "tune": "The First Noel",
            "source": [
                "air anglais, c. XVIe siècle"
            ]
        },
        "subject": "christmas"
    },
    {
        "title": "Noël nouvelet",
        "original_title": "",
        "text": [
            "français, XVe siècle;",
            "ad. Arlie Coles (2021), str. 11, 13"
        ],
        "music": {
            "tune": "Noël nouvelet",
            "source": [
                "air français, XVe siècle"
            ]
        },
        "subject": "christmas"
    },
    {
        "title": "Astre brillant qui répands sur la terre",
        "original_title": "Brightest and best of the sons of the morning",
        "text": [
            "Reginald Heber (1811);",
            "tr. Flossette du Pasquier (née 1922)"
        ],
        "music": {
            "tune": "Liebster Immanuel",
            "source": [
                "*Himmels-Lust* (1675);",
                "harm. J. S. Bach (1685-1750)"
            ]
        },
        "subject": "epiphany"
    },
    {
        "title": "Jadis les rois mages heureux",
        "original_title": "As with gladness men of old",
        "text": [
            "W. Chatterton Dix;",
            "tr. Arlie Coles (2021)"
        ],
        "music": {
            "tune": "Dix",
            "source": [
                "Conrad Kocher (1838)"
            ]
        },
        "subject": "epiphany"
    },
    {
        "title": "Ouvre tes portes, ô Sion",
        "original_title": "Templi sacratas pande, Sion, fores",
        "text": [
            "Jean-Baptiste de Santeul (1630-1697);",
            "tr. en anglais Edward Caswall (1814-1878);",
            "tr. en français J. Giraud, *Hymnes à l'usage de l'église pour le service divin*, *Société pour l'avancement des connaissances chrétiennes* (1892)"
        ],
        "music": {
            "tune": "Bedford",
            "source": [
                "William Wheal (1720)"
            ]
        },
        "subject": "candlemas"
    },
    {
        "title": "O sainte et douce harmonie",
        "original_title": "Alleluia, dulce carmen",
        "text": [
            "Latin, XIe siècle;",
            "tr. en anglais J. M. Neale (1861);",
            "tr. en français J. Giraud, *Hymnes à l'usage de l'église pour le service divin*, *Société pour l'avancement des connaissances chrétiennes* (1892)"
        ],
        "music": {
            "tune": "Dulce carmen",
            "source": [
                "Michael Haydn (1782)"
            ]
        },
        "subject": "shrovetide"
    },
    {
        "title": "Pendant ces quarante jours",
        "original_title": "Forty days and forty nights",
        "text": [
            "George Hunt Smyttan (1856)",
            "tr. Arlie Coles (2021)"
        ],
        "music": {
            "tune": "Heinlein",
            "source": [
                "Martin Herbst (1676)"
            ]
        },
        "subject": "lent"
    },
    {
        "title": "Tout honneur, toute gloire",
        "original_title": "Gloria, laus, et honor",
        "text": [
            "Theodulph, Evêque d'Orléans (820);",
            "tr. en anglais J. M. Neale (1854);",
            "tr. en français Arlie Coles (2021)"
        ],
        "music": {
            "tune": "Saint Theodulph",
            "source": [
                "Melchir Teschner (1613);",
                "harm. William H. Monk (1823-1889)"
            ]
        },
        "subject": "passion"
    },
    {
        "title": "Gouttez, mes larmes",
        "original_title": "Drop, drop, slow tears",
        "text": [
            "Phineas Fletcher (1582-1650);",
            "tr. Arlie Coles (2021)"
        ],
        "music": {
            "tune": "Song 46",
            "source": [
                "Orlando Gibbons (1623)"
            ]
        },
        "subject": "passion"
    },
    {
        "title": "La Mère était douloureuse",
        "original_title": "Stabat mater dolorosa",
        "text": [
            "attr. Jacopone de Todi, XIIIe siècle",
            "tr. *Livre d'heures à l'usage de Paris*, XVe siècle, str. 1-18;",
            "tr. *Livre d'heures à l'usage de Besançon*, XVe siècle, str. 19-20",
            "ad. Arlie Coles (2021)"
        ],
        "music": {
            "tune": "Stabat Mater",
            "source": [
                "*Gesangbuch*, Mainz (1661)"
            ]
        },
        "subject": "passion"
    },
    {
        "title": "Ah, très cher Jésus",
        "original_title": "Herzliebster Jesu",
        "text": [
            "Johan Heermann (1585-1647);",
            "tr. en anglais Robert Bridges (1897);",
            "tr. en français Arlie Coles (2021)"
        ],
        "music": {
            "tune": "Herzliebster Jesu",
            "source": [
                "Johann Crüger (1598-1662)"
            ]
        },
        "subject": "passion"
    },
    {
        "title": "O front sacré, accablé",
        "original_title": "Salve caput cruentatum",
        "text": [
            "Arnulf de Louvain (mort 1250)",
            "ad. en allemand Paul Gerhardt (1607-1676);",
            "tr. en anglais Robert Seymour Bridges (1844-1930), str. 1-3, 5",
            "tr. en anglais John W. Alexander (1804-1859), str. 4;",
            "tr. en français Arlie Coles (2021)"
        ],
        "music": {
            "tune": "Passion Chorale",
            "source": [
                "Hans Leo Hassler (1601)"
            ]
        },
        "subject": "passion"
    },
    {
        "title": "Vois là-bas, mettre le Seigneur en croix",
        "original_title": "Were you there when they crucified my Lord",
        "text": [
            "Spiritual afro-américain, XIXe siècle;",
            "tr. Claire Julien (date inconnue)"
        ],
        "music": {
            "tune": "Were you there",
            "source": [
                "Spiritual afro-américain, XIXe siècle"
            ]
        },
        "subject": "passion"
    },
    {
        "title": "Hors pair est cet amour",
        "original_title": "My song is love unknown",
        "text": [
            "Samuel Crossman (1664);",
            "tr. Arlie Coles (2021)"
        ],
        "music": {
            "tune": "Love unknown",
            "source": [
                "John Ireland (1918)"
            ]
        },
        "subject": "passion"
    },
    {
        "title": "Quelle douleur",
        "original_title": "O Traurigkeit",
        "text": [
            "Johann von Rist (1637);",
            "tr. *Nouvelle édition des Cantiques spirituels* (1747)"
        ],
        "music": {
            "tune": "O Traurigkeit",
            "source": [
                "*Himmlische Harmonie* (1628)"
            ]
        },
        "subject": "passion"
    },
    {
        "title": "L'étendard vient du Roi des rois",
        "original_title": "Vexilla regis prodeunt",
        "text": [
            "Venantius Honorius Clementianus Fortunatus (569)",
            "tr. Saint François de Sales (1567-1661)"
        ],
        "music": {
            "tune": "Vexilla regis prodeunt",
            "source": [
                "Plain-chant de Sarum, VIIe siècle"
            ]
        },
        "subject": "passion"
    },
    {
        "title": "Le grand combat est terminé",
        "original_title": "Finita jam sun proelia",
        "text": [
            "*Symphonia Sirenum Selectarum* (1695);",
            "tr. en anglais Francis Pott (1859);",
            "tr. en français Richard Paquier (1905-1985) ad. Arlie Coles (2021), str. 1-3;",
            "tr. en français Arlie Coles (2021), str. 4-5"
        ],
        "music": {
            "tune": "Victory",
            "source": [
                "Giovanni Pierluigi da Palestrina (1591)"
            ]
        },
        "subject": "easter"
    },
    {
        "title": "A toi la gloire",
        "original_title": "",
        "text": [
            "Edmond L. Budry (1885);"
        ],
        "music": {
            "tune": "Judas Maccabaeus",
            "source": [
                "George F. Handel (1747)"
            ]
        },
        "subject": "easter"
    },
    {
        "title": "Jésus Christ, il réssuscite",
        "original_title": "Jesus Christ is risen today",
        "text": [
            "*Lyrica Davidica* (1790);",
            "tr. Arlie Coles (2021)"
        ],
        "music": {
            "tune": "Easter Hymn",
            "source": [
                "*Lyrica Davidica* (1790)"
            ]
        },
        "subject": "easter"
    },
    {
        "title": "Le Christ est ressuscité",
        "original_title": "Christus ist erstanden",
        "text": [
            "Michael Weisse (1531);",
            "tr. en anglais Catherine Winkworth (1858);",
            "tr. en français Arlie Coles (2021)"
        ],
        "music": {
            "tune": "Würtemburg",
            "source": [
                "Johann Rosenmüller (1655)"
            ]
        },
        "subject": "easter"
    },
    {
        "title": "Venez, fidèles, chantez",
        "original_title": "Come ye faithful, raise the strain",
        "text": [
            "Saint Jean Damascène",
            "tr. en anglais J. M. Neale (1859);",
            "tr. en français Arlie Coles (2021)"
        ],
        "music": {
            "tune": "Gaudeamus Pariter",
            "source": [
                "Jan Roh (1544)"
            ]
        },
        "subject": "easter"
    },
    {
        "title": "Gloire au Christ victorieux",
        "original_title": "Hail the day that sees him rise",
        "text": [
            "Charles Wesley (1707-1788);",
            "tr. Richard Paquier (1905-1985), str. 1-2, 4-5, ad. Arlie Coles (2021), str. 1;",
            "tr. Arlie Coles (2021), str. 3, 6"
        ],
        "music": {
            "tune": "Llanfair",
            "source": [
                "Robert Williams (1817)"
            ]
        },
        "subject": "ascension"
    },
    {
        "title": "Le front d'épines couronné",
        "original_title": "The head that once was crowned with thorns",
        "text": [
            "Thomas Kelly (1820);",
            "tr. Flossette du Pasquier (née 1922)"
        ],
        "music": {
            "tune": "St Magnus Clarke",
            "source": [
                "Jeremiah Clarke (1707)"
            ]
        },
        "subject": "ascension"
    },
    {
        "title": "Avant de quitter ce bas lieu",
        "original_title": "Our blest Redeemer, ere he breathed",
        "text": [
            "Harriet Auber (1829);",
            "tr. J. Giraud, *Hymnes à l'usage de l'église pour le service divin*, *Société pour l'avancement des connaissances chrétiennes* (1892)"
        ],
        "music": {
            "tune": "Saint Cuthbert",
            "source": [
                "John Bacchus Dykes (1861)"
            ]
        },
        "subject": "pentecost"
    },
    {
        "title": "Viens, ô Roi tout-puissant",
        "original_title": "Come, thou almighty King",
        "text": [
            "inconnu (c. 1757);",
            "tr. Arlie Coles (2021)"
        ],
        "music": {
            "tune": "Italian Hymn",
            "source": [
                "Felice de Giardini (1716-1796)"
            ]
        },
        "subject": "trinity"
    },
    {
        "title": "En ton nom, Seigneur, nous prions",
        "original_title": "Lord, in thy name thy servants plead",
        "text": [
            "John Keble (1856);",
            "tr. *Hymnes à l'usage de l'église pour le service divin*, *Société pour l'avancement des connaissances chrétiennes* (1892)"
        ],
        "music": {
            "tune": "Sainte Agnes",
            "source": [
                "John Bacchus Dykes (1866)"
            ]
        },
        "subject": "rogation"
    },
    {
        "title": "Salut, le Nom du Redempteur",
        "original_title": "All hail the power of Jesus' Name",
        "text": [
            "Edward Perronet (1726-1792);",
            "tr. Charles Rochedieu (1857-1928), ad. Arlie Coles (2021), str. 1;",
            "tr. Arlie Coles (2021), str. 2-8"
        ],
        "music": {
            "tune": "Coronation",
            "source": [
                "Olivier Holden (1765-1844)"
            ]
        },
        "subject": "praise"
    },
    {
        "title": "Qu'au saint Nom de Jésus",
        "original_title": "At the name of Jesus",
        "text": [
            "Caroline M. Noel (1870);",
            "tr. Arlie Coles (2021)"
        ],
        "music": {
            "tune": "King's Weston",
            "source": [
                "Ralph Vaughan Williams (1925)"
            ]
        },
        "subject": "praise"
    },
    {
        "title": "Amour dépassant tout autre",
        "original_title": "Love divine, all loves excelling",
        "text": [
            "Charles Wesley (1707-1788);",
            "tr. Arlie Coles (2021)"
        ],
        "music": {
            "tune": "Hyfrydol",
            "source": [
                "Rowland H. Prichard (1811-1887)"
            ]
        },
        "subject": "praise"
    },
    {
        "title": "O Dieu, notre aide aux temps anciens",
        "original_title": "O God, our help in ages past",
        "text": [
            "Isaac Watts (1674-1748);",
            "tr. Pauline Martin (1950), ad. Arlie Coles (2021), str. 6"
        ],
        "music": {
            "tune": "Saint Anne",
            "source": [
                "William Croft (1678-1727)"
            ]
        },
        "subject": "praise"
    },
    {
        "title": "Loue, âme, le Roi de gloire",
        "original_title": "Praise, my soul, the King of Heaven",
        "text": [
            "Isaac Watts (1674-1748);",
            "tr. Arlie Coles (2021)"
        ],
        "music": {
            "tune": "Lauda anima",
            "source": [
                "John Goss (1800-1880)"
            ]
        },
        "subject": "praise"
    },
    {
        "title": "Tant que le monde durera",
        "original_title": "Jesus shall reign wherever the sun",
        "text": [
            "Isaac Watts (1674-1748);",
            "tr. Flossette du Pasquier (née 1922)"
        ],
        "music": {
            "tune": "Duke Street",
            "source": [
                "attr. John C. Hatton (mort 1793)"
            ]
        },
        "subject": "praise"
    },
    {
        "title": "Guide-moi, Berger fidèle",
        "original_title": "Arglwydd arwain trwy'r anialwch",
        "text": [
            "William Williams (1745);",
            "tr. en anglais Peter Williams (1771);",
            "tr. en français Flossette du Pasquier (née 1922), ad. Arlie Coles (2021), str. 2"
        ],
        "music": {
            "tune": "Cwm Rhondda",
            "source": [
                "attr. John Hughes (1907)"
            ]
        },
        "subject": "praise"
    },
    {
        "title": "Mon Dieu, plus près de toi",
        "original_title": "Nearer, my God, to thee",
        "text": [
            "Sarah F. Adams (1841);",
            "tr. Charles Châtelanat (1833-1907), ad. Arlie Coles (2021), str. 2"
        ],
        "music": {
            "tune": "Bethany",
            "source": [
                "Lowell Mason (1856)"
            ]
        },
        "subject": "praise"
    },
    {
        "title": "Vous qui sur la terre habitez",
        "original_title": "",
        "text": [
            "Théodore de Bèze (1619-1605)"
        ],
        "music": {
            "tune": "Old Hundredth",
            "source": [
                "Louis Bourgeois (1551)"
            ]
        },
        "subject": "praise"
    },
    {
        "title": "Rendez à Dieu louange et gloire",
        "original_title": "",
        "text": [
            "Clément Marot (1497-1544); ad. Arlie Coles (2021)"
        ],
        "music": {
            "tune": "Rendez à Dieu",
            "source": [
                "Louis Bourgeois et/ou Guillaume Franc (1543)"
            ]
        },
        "subject": "praise"
    },
    {
        "title": "Vous, créatures du Seigneur",
        "original_title": "Altissimu, omnipotente bon Signore",
        "text": [
            "St. François d'Assise (1225);",
            "ad. en anglais William H. Draper (1910);",
            "tr. en français Jean-Jacques Bovet (1904)"
        ],
        "music": {
            "tune": "Lasst uns erfreuen",
            "source": [
                "*Auserlesen Catholische Geistliche Kirchengesäng* (1623)"
            ]
        },
        "subject": "praise"
    },
    {
        "title": "Dans ton amour, divin Sauveur",
        "original_title": "And can it be that I should gain",
        "text": [
            "Charles Wesley (1738);",
            "tr. en français Hector Arnéra (1890-1972)"
        ],
        "music": {
            "tune": "Sagina",
            "source": [
                "Thomas Campbell (1825)"
            ]
        },
        "subject": "praise"
    },
    {
        "title": "Tel que je suis",
        "original_title": "Just as I am",
        "text": [
            "Charlotte Elliot (1789-1871);",
            "tr. inconnu, str. 1, 3, 5-6;",
            "tr. Arlie Coles (2021), str. 2, 4"
        ],
        "music": {
            "tune": "Woodworth",
            "source": [
                "William B. Bradbury (1849)"
            ]
        },
        "subject": "praise"
    },
    {
        "title": "Jésus, ô Nom qui surpasse",
        "original_title": "Jesus, lover of my soul",
        "text": [
            "Charles Wesley (1740);",
            "tr. Ruben Sailens (1855-1942)"
        ],
        "music": {
            "tune": "Aberystwyth",
            "source": [
                "Joseph Parry (1879)"
            ]
        },
        "subject": "praise"
    },
    {
        "title": "Torrents d'amour et de grâce",
        "original_title": "O the sweet, sweet love of Jesus",
        "text": [
            "S. Trevor Francis;",
            "tr. Ruben Sailens (1855-1942)"
        ],
        "music": {
            "tune": "Ebenezer",
            "source": [
                "Thomas John Williams (1890)"
            ]
        },
        "subject": "praise"
    },
    {
        "title": "Amour profond majestueux",
        "original_title": "O amor quam ecstaticus",
        "text": [
            "Thomas a Kempis (1370-1471);",
            "tr. en anglais Benjamin Webb (1852);",
            "tr. en français Arlie Coles (2021)"
        ],
        "music": {
            "tune": "Deus tuorum militum",
            "source": [
                "*Antiphoner*, Grenoble (1753)"
            ]
        },
        "subject": "praise"
    },
    {
        "title": "A l'Agneau sur son trône",
        "original_title": "Crown him with many crowns",
        "text": [
            "Matthew Bridges (1851);",
            "tr. Ruben Sailens (1855-1942)"
        ],
        "music": {
            "tune": "Diademata",
            "source": [
                "George J. Elvey (1868)"
            ]
        },
        "subject": "praise"
    },
    {
        "title": "Beau Seigneur Jésus",
        "original_title": "Schönster Herr Jesu",
        "text": [
            "inconnu, allemand (1662);",
            "tr. en anglais inconnu (1850)",
            "tr. en français Arlie Coles (2021)"
        ],
        "music": {
            "tune": "Sainte Elisabeth",
            "source": [
                "air silésien, *Schlesische Volkslieder* (1842)"
            ]
        },
        "subject": "praise"
    },
    {
        "title": "Seigneur, que n'ai-je mille voix",
        "original_title": "O for a thousand tongues to sing",
        "text": [
            "Charles Wesley (1739);",
            "tr. Ruben Sailens (1855-1942), str. 1-4",
            "tr. Arlie Coles (2022), str. 5-6"
        ],
        "music": {
            "tune": "Azmon",
            "source": [
                "C. G. Gläser (1928);",
                "ad. Lowell Mason (1792-1872)"
            ]
        },
        "subject": "praise"
    },
    {
        "title": "Louons du Seigneur",
        "original_title": "O worship the King",
        "text": [
            "Robert Grant (1833);",
            "tr. Flossette du Pasquier (née 1922), str. 1-4",
            "tr. Arlie Coles (2022), str. 5"
        ],
        "music": {
            "tune": "Hanover",
            "source": [
                "William Croft (1708)"
            ]
        },
        "subject": "praise"
    },
    {
        "title": "Le grand Dieu d'Abraham",
        "original_title": "The God of Abraham praise",
        "text": [
            "Daniel ben Judah, XIVe siècle;",
            "ad. en anglais Thomas Olivers (1770);",
            "tr. en français Arlie Coles (2022), str. 1-2, 5-6",
            "tr. en français Flossette du Pasquier (née 1922), str. 3-4"
        ],
        "music": {
            "tune": "Leoni",
            "source": [
                "Meyer Lyon (1770)"
            ]
        },
        "subject": "praise"
    },
    {
        "title": "Louons le Créateur",
        "original_title": "Nun danket alle Gott",
        "text": [
            "Martin Rinckart (1636);",
            "tr. en anglais Catherine Winkworth (1858);",
            "tr. en français Flossette du Pasquier (née 1922)"
        ],
        "music": {
            "tune": "Nun danket",
            "source": [
                "Johann Crüger (1647)"
            ]
        },
        "subject": "praise"
    },
    {
        "title": "Louons le Dieu puissant",
        "original_title": "Lobe den Herren, den mächtigen König der Ehren",
        "text": [
            "Joachim Neander (1680);",
            "tr. en anglais Catherine Winkworth (1863);",
            "tr. en français Augustin Mahot (date inconnue), str. 1-2, 4;",
            "tr. en français Arlie Coles (2021), str. 3"
        ],
        "music": {
            "tune": "Lobe den Herren",
            "source": [
                "air allemand (1665)"
            ]
        },
        "subject": "praise"
    },
    {
        "title": "Que l'amour m'enflamme",
        "original_title": "",
        "text": [
            "*Vieux cantiques et hymnes religieuses* [sic]}, Union Saint-Jean-Baptiste d'Amérique (1931)"
        ],
        "music": {
            "tune": "Lourdes Hymn",
            "source": [
                "Air des Pyrénées;",
                "Grenoble (1882)"
            ]
        },
        "subject": "praise"
    },
    {
        "title": "Protège l'enfance, Jésus, Bon Pasteur",
        "original_title": "",
        "text": [
            "*Chants Sacrés*, Messager canadien du Sacré-Coeur (1930)"
        ],
        "music": {
            "tune": "Hanover",
            "source": [
                "William Croft (1708)"
            ]
        },
        "subject": "praise"
    },
    {
        "title": "Comme un cerf altéré brâme",
        "original_title": "",
        "text": [
            "Théodore de Bèze (1619-1605)"
        ],
        "music": {
            "tune": "Genevan 42",
            "source": [
                "Louis Bourgeois (1551)"
            ]
        },
        "subject": "praise"
    },
    {
        "title": "Sois ma vision",
        "original_title": "Be thou my vision",
        "text": [
            "Ancien irlandais, VIIIe siècle;",
            "tr. en anglais Mary E. Byrne (1905);",
            "ad. Eleanor H. Hull (1912);",
            "tr. en français Arlie Coles (2021)"
        ],
        "music": {
            "tune": "Slane",
            "source": [
                "Air irlandais (date inconnue)"
            ]
        },
        "subject": "praise"
    },
    {
        "title": "Vers toi, divin Père",
        "original_title": "",
        "text": [
            "Attr. Monsignor Pirio (date inconnue)"
        ],
        "music": {
            "tune": "Hanover",
            "source": [
                "William Croft (1708)"
            ]
        },
        "subject": "communion"
    },
    {
        "title": "Orne-toi, âme, de bonheur",
        "original_title": "Schmücke dich, o liebe Seele",
        "text": [
            "Johann Franck (1649);",
            "tr. en anglais Catherine Winkworth (1863);",
            "tr. en français Arlie Coles (2021)"
        ],
        "music": {
            "tune": "Schmücke dich",
            "source": [
                "Johann Crüger (1598-1662)"
            ]
        },
        "subject": "communion"
    },
    {
        "title": "Saint aliment des âmes",
        "original_title": "",
        "text": [
            "*Psallam Deo*, Schola Cantorum de Montréal (1922)"
        ],
        "music": {
            "tune": "Innsbruck",
            "source": [
                "Heinrich Isaac (1539);",
                "harm. J. S. Bach (1729)"
            ]
        },
        "subject": "communion"
    },
    {
        "title": "Au banquet du Roi on chante",
        "original_title": "Ad regias Agni dapes",
        "text": [
            "Latin, IVe siècle;",
            "tr. en anglais Robert Campbell (1849);",
            "tr. en français Arlie Coles (2021)"
        ],
        "music": {
            "tune": "Salzburg",
            "source": [
                "Jakob Hintze (1678)"
            ]
        },
        "subject": "communion"
    },
    {
        "title": "Alléluia, chante à Jésus",
        "original_title": "Alleluia, sing to Jesus",
        "text": [
            "W. Chatterton Dix (1866);",
            "tr. Arlie Coles (2021)"
        ],
        "music": {
            "tune": "Hyfrydol",
            "source": [
                "Rowland H. Prichard (1811-1887)"
            ]
        },
        "subject": "communion"
    },
    {
        "title": "Attentifs à l'amour qui nous rachète",
        "original_title": "And now, o Father, mindful of the love",
        "text": [
            "William Bright (1874);",
            "tr. Arlie Coles (2021)"
        ],
        "music": {
            "tune": "Unde et memores",
            "source": [
                "William Henry Monk (1875)"
            ]
        },
        "subject": "communion"
    },
    {
        "title": "Dans l'amour, il rompit ce Pain",
        "original_title": "Bread of the world, in mercy broken",
        "text": [
            "Reginald Heber (1827);",
            "tr. Arlie Coles (2021)"
        ],
        "music": {
            "tune": "Rendez à Dieu",
            "source": [
                "Louis Bourgeois et/ou Guillaume Franc (1543)"
            ]
        },
        "subject": "communion"
    },
    {
        "title": "Chante, ô langue, du mystère",
        "original_title": "Pange lingua gloriosi",
        "text": [
            "Thomas Aquinas (1225-1274);",
            "tr. Arlie Coles (2021)"
        ],
        "music": {
            "tune": "Pange lingua",
            "source": [
                "Chant grégorien, IIIème mode"
            ]
        },
        "subject": "communion"
    },
    {
        "title": "Viens silencieux, chair mortelle",
        "original_title": " Siyisáto pᾶsa sárx vrotía; Let all mortal flesh keep silence",
        "text": [
            "La Liturgie de Saint Jacques frère-de-Dieu (c. 275)",
            "ad. en anglais Gerard Moultrie (1864)",
            "tr. en français Arlie Coles (2021)"
        ],
        "music": {
            "tune": "Picardy",
            "source": [
                "Air français, XVIIe siècle"
            ]
        },
        "subject": "communion"
    },
    {
        "title": "Nous aimons le saint lieu",
        "original_title": "We love the place, O God",
        "text": [
            "William Bullock (1854);",
            "tr. J. Giraud, *Hymnes à l'usage de l'église pour le service divin*, *Société pour l'avancement des connaissances chrétiennes* (1892)"
        ],
        "music": {
            "tune": "Quam Dilecta",
            "source": [
                "Henry Lascelles Jenner (1861)"
            ]
        },
        "subject": "dedication"
    },
    {
        "title": "Le Christ, la pierre angulaire",
        "original_title": "Angularis fundamentum",
        "text": [
            "Latin, VI siècle",
            "tr. en français J. Racine (1659), *Bréviaire de Le Tourneux*",
            "ad. Arlie Coles (2021)"
        ],
        "music": {
            "tune": "Westminster Abbey",
            "source": [
                "Henry Purcell (1680)"
            ]
        },
        "subject": "dedication"
    },
    {
        "title": "J'aime ton beau royaume",
        "original_title": "I love thy kingdom, Lord",
        "text": [
            "Timothy Dwight (1800)",
            "tr. Arlie Coles (2021)"
        ],
        "music": {
            "tune": "St Thomas (Williams)",
            "source": [
                "Aaron Williams (1763)"
            ]
        },
        "subject": "dedication"
    },
    {
        "title": "Reconnaissants, nous venons",
        "original_title": "Come, ye thankful people, come",
        "text": [
            "Henry Alford (1844);",
            "tr. Arlie Coles (2021)"
        ],
        "music": {
            "tune": "Saint George Windsor",
            "source": [
                "George J. Elvey (1856)"
            ]
        },
        "subject": "thanksgiving"
    },
    {
        "title": "Père éternel dont le pouvoir",
        "original_title": "Eternal Father, strong to save",
        "text": [
            "William Whiting (1860);",
            "tr. *Hymnes à l'usage de l'église pour le service divin*, *Société pour l'avancement des connaissances chrétiennes* (1892)"
        ],
        "music": {
            "tune": "Melita",
            "source": [
                "John Bacchus Dykes (1861)"
            ]
        },
        "subject": "sea"
    },
    {
        "title": "L'église universelle a pour roc Jésus Christ",
        "original_title": "The Church's one foundation",
        "text": [
            "Samuel J. Stone (1886);",
            "tr. Fernand Barth (date inconnue)"
        ],
        "music": {
            "tune": "Aurelia",
            "source": [
                "Samuel S. Wesley (1864)"
            ]
        },
        "subject": "militant"
    },
    {
        "title": "Debout, sainte cohorte",
        "original_title": "The Church's one foundation",
        "text": [
            "George Duffield (1858);",
            "tr. Ruben Sailens (1855-1942)"
        ],
        "music": {
            "tune": "Webb",
            "source": [
                "George James Webb (1837)"
            ]
        },
        "subject": "militant"
    },
    {
        "title": "C'est un rempart que notre Dieu",
        "original_title": "Ein feste Burg ist unser Gott",
        "text": [
            "Martin Luther (1529);",
            "tr. Henri Lutteroth (1845)"
        ],
        "music": {
            "tune": "Ein feste Burg",
            "source": [
                "Martin Luther (1529);",
                "harm. J. S. Bach (c. 1735)"
            ]
        },
        "subject": "militant"
    },
    {
        "title": "Jésus, la gloire et l'honneur des anges",
        "original_title": "Christus sanctorum decus angelorum",
        "text": [
            "Rabanus Maurus (776-856);",
            "tr. en anglais Percy Dearmer (1867-1936);",
            "tr. en français Arlie Coles (2021)"
        ],
        "music": {
            "tune": "Coelites plaudant",
            "source": [
                "*Antiphoner*, Rouen (1728)"
            ]
        },
        "subject": "militant"
    },
    {
        "title": "O jour de bonheur radiant",
        "original_title": "O day of radiant gladness",
        "text": [
            "Christopher Wordsworth (1862)",
            "tr. Arlie Coles (2021)"
        ],
        "music": {
            "tune": "Es flog ein kleins Waldsvögelein",
            "source": [
                "air allemand, XVIIe siècle"
            ]
        },
        "subject": "militant"
    },
    {
        "title": "La foi de nos aieux vivante",
        "original_title": "Faith of our fathers",
        "text": [
            "Frederick William Faber (1849)",
            "tr. Arlie Coles (2021)"
        ],
        "music": {
            "tune": "Sainte Catherine",
            "source": [
                "Henri F. Hemy (1864)"
            ]
        },
        "subject": "triumphant"
    },
    {
        "title": "Les dons éternels du grand Roi",
        "original_title": "Aeterna Christi munera",
        "text": [
            "Saint Ambroise (340-397);",
            "tr. en anglais J. M. Neale (1854);",
            "tr. en français J. Giraud, *Hymnes à l'usage de l'église pour le service divin*, *Société pour l'avancement des connaissances chrétiennes* (1892)"
        ],
        "music": {
            "tune": "Aeterna Christi Munera",
            "source": [
                "mélodie d'église (Rouen), XIIIe siècle"
            ]
        },
        "subject": "triumphant"
    },
    {
        "title": "Il est aux cieux une joie immortelle",
        "original_title": "O quanta qualia sunt illa Sabbata",
        "text": [
            "Pierre Abelard (1079-1142);",
            "tr. en anglais J. M. Neale (1854);",
            "Flossette du Pasquier (née 1922)"
        ],
        "music": {
            "tune": "O Quantia Qualia",
            "source": [
                "*Antiphonairium Parisiense* (1681);",
                "harm. John Bacchus Dykes (1823-1876)"
            ]
        },
        "subject": "triumphant"
    },
    {
        "title": "Pour tous les saints",
        "original_title": "For all the saints",
        "text": [
            "William W. How (1823-1897);",
            "tr. Arlie Coles (2021)"
        ],
        "music": {
            "tune": "Sine Nomine",
            "source": [
                "Ralph Vaughan Williams (1872-1958)"
            ]
        },
        "subject": "triumphant"
    }
]
